Wastewater Surveillance Interlab Program Analytical Code Documentation
…
4.4.1 Misc. heap of code

Find main package list + versions:

```{r}
print(head
      (tibble::tibble(
        Package = names(installed.packages()[,3]),
        Version = unname(installed.packages()[,3])
      ), n=600 #where n = an appropriately large value to capture all your packages
      )
)
```

# A tibble: 361 × 2
   Package      Version 
   <chr>        <chr>   
 1 abind        1.4-5   
 2 askpass      1.1     
 3 assertthat   0.2.1   
 4 backports    1.4.1   
 5 base         4.3.0   
 6 base64enc    0.1-3   
 7 BH           1.81.0-1
 8 bigD         0.2.0   
 9 BiocGenerics 0.46.0  
10 BiocManager  1.30.21 
# ℹ 351 more rows
